{
    "index": {
        "download_fdroid": "F-Droidをダウンロード",
        "introduction": "F-Droidは、Androidプラットフォーム用のFOSS(フリーオープンソースソフトウェア)アプリケーションのインストール可能なカタログです。お使いの端末で簡単にブラウジング、インストール、およびアップデートの追跡ができます。",
        "gpg_signature": "PGP署名",
        "screenshot": "F-Droid Androidアプリのスクリーンショット",
        "title": "F-Droidとは？"
    },
    "navigation": {
        "about": "F-Droidについて",
        "documentation": "ドキュメント",
        "forum": "フォーラム",
        "browse": "ブラウズ",
        "contribute": "貢献する",
        "repomaker": "レポメーカー",
        "tutorials": "チュートリアル",
        "news": "ニュース",
        "issues": "課題"
    },
    "package": {
        "website": "ウェブサイト",
        "license": "ライセンス",
        "new_in_version": "このバージョンの新しい機能[latest_version]",
        "liberapay": "Liberapay",
        "flattr": "Flattr",
        "build_metadata": "ビルドのメタデータ",
        "changelog": "変更履歴",
        "author": "作者",
        "version_info": "<b>バージョン[package_version]</b>([package_version_code]) - [package_added_date]に追加",
        "signed_by_developer": "開発者によって作成、署名されました。",
        "gpg_signature": "PGP署名",
        "signed_by_fdroid": "F-Droidによって作成され、署名されました。<a href=\"[source_code_url]\">このソースtarball</a>に対応することを保証します。",
        "source_code": "ソースコード",
        "technical_info": "技術情報",
        "packages": "パッケージ",
        "download": "[file_extension]をダウンロード",
        "minimum_android_version": "このバージョンはAndroid [android_version]以降が必要です。",
        "donate": "寄付する",
        "suggest_downloading_via_fdroid": "以下からAPKのダウンロードを行うこともできますが、この方法でインストールすると、更新の通知を受け取れないため、安全性の低いダウンロード方法になります。F-Droidクライアントをインストールして使用することをお勧めします。",
        "issue_tracker": "課題を追跡",
        "permissions": "権限"
    },
    "sidebars": {
        "latest_packages": {
            "heading": "最新のアプリ"
        },
        "news": {
            "heading": "ニュース"
        },
        "search": {
            "noscript": "Javaスクリプトを有効にする必要があります",
            "search": "検索",
            "heading": "アプリを探す"
        },
        "donate": {
            "bank_transfer_name": "名前",
            "bitcoin_alt": "Bitcoinで寄付する",
            "powered_by_donations": "F-Droidは皆さまの寄付によって支えられています！",
            "via_bank_transfer": "銀行振込",
            "litecoin_alt": "Litecoinで寄付する",
            "flattr_alt": "Flattrで寄付する",
            "paypal_alt": "PayPalで寄付する",
            "liberapay_alt": "Liberapayで寄付する",
            "heading": "寄付する"
        },
        "last_updated": {
            "heading": "最終更新"
        }
    }
}
